<?xml version="1.0" encoding="utf-8"?>
<!DOCTYPE eagle SYSTEM "eagle.dtd">
<eagle version="9.6.2">
<drawing>
<settings>
<setting alwaysvectorfont="no"/>
<setting verticaltext="up"/>
</settings>
<grid distance="0.1" unitdist="inch" unit="inch" style="lines" multiple="1" display="no" altdistance="0.01" altunitdist="inch" altunit="inch"/>
<layers>
<layer number="1" name="Top" color="4" fill="1" visible="no" active="no"/>
<layer number="16" name="Bottom" color="1" fill="1" visible="no" active="no"/>
<layer number="17" name="Pads" color="2" fill="1" visible="no" active="no"/>
<layer number="18" name="Vias" color="2" fill="1" visible="no" active="no"/>
<layer number="19" name="Unrouted" color="6" fill="1" visible="no" active="no"/>
<layer number="20" name="Dimension" color="15" fill="1" visible="no" active="no"/>
<layer number="21" name="tPlace" color="7" fill="1" visible="no" active="no"/>
<layer number="22" name="bPlace" color="7" fill="1" visible="no" active="no"/>
<layer number="23" name="tOrigins" color="15" fill="1" visible="no" active="no"/>
<layer number="24" name="bOrigins" color="15" fill="1" visible="no" active="no"/>
<layer number="25" name="tNames" color="7" fill="1" visible="no" active="no"/>
<layer number="26" name="bNames" color="7" fill="1" visible="no" active="no"/>
<layer number="27" name="tValues" color="7" fill="1" visible="no" active="no"/>
<layer number="28" name="bValues" color="7" fill="1" visible="no" active="no"/>
<layer number="29" name="tStop" color="7" fill="3" visible="no" active="no"/>
<layer number="30" name="bStop" color="7" fill="6" visible="no" active="no"/>
<layer number="31" name="tCream" color="7" fill="4" visible="no" active="no"/>
<layer number="32" name="bCream" color="7" fill="5" visible="no" active="no"/>
<layer number="33" name="tFinish" color="6" fill="3" visible="no" active="no"/>
<layer number="34" name="bFinish" color="6" fill="6" visible="no" active="no"/>
<layer number="35" name="tGlue" color="7" fill="4" visible="no" active="no"/>
<layer number="36" name="bGlue" color="7" fill="5" visible="no" active="no"/>
<layer number="37" name="tTest" color="7" fill="1" visible="no" active="no"/>
<layer number="38" name="bTest" color="7" fill="1" visible="no" active="no"/>
<layer number="39" name="tKeepout" color="4" fill="11" visible="no" active="no"/>
<layer number="40" name="bKeepout" color="1" fill="11" visible="no" active="no"/>
<layer number="41" name="tRestrict" color="4" fill="10" visible="no" active="no"/>
<layer number="42" name="bRestrict" color="1" fill="10" visible="no" active="no"/>
<layer number="43" name="vRestrict" color="2" fill="10" visible="no" active="no"/>
<layer number="44" name="Drills" color="7" fill="1" visible="no" active="no"/>
<layer number="45" name="Holes" color="7" fill="1" visible="no" active="no"/>
<layer number="46" name="Milling" color="3" fill="1" visible="no" active="no"/>
<layer number="47" name="Measures" color="7" fill="1" visible="no" active="no"/>
<layer number="48" name="Document" color="7" fill="1" visible="no" active="no"/>
<layer number="49" name="Reference" color="7" fill="1" visible="no" active="no"/>
<layer number="51" name="tDocu" color="7" fill="1" visible="no" active="no"/>
<layer number="52" name="bDocu" color="7" fill="1" visible="no" active="no"/>
<layer number="88" name="SimResults" color="9" fill="1" visible="yes" active="yes"/>
<layer number="89" name="SimProbes" color="9" fill="1" visible="yes" active="yes"/>
<layer number="90" name="Modules" color="5" fill="1" visible="yes" active="yes"/>
<layer number="91" name="Nets" color="2" fill="1" visible="yes" active="yes"/>
<layer number="92" name="Busses" color="1" fill="1" visible="yes" active="yes"/>
<layer number="93" name="Pins" color="2" fill="1" visible="no" active="yes"/>
<layer number="94" name="Symbols" color="4" fill="1" visible="yes" active="yes"/>
<layer number="95" name="Names" color="7" fill="1" visible="yes" active="yes"/>
<layer number="96" name="Values" color="7" fill="1" visible="yes" active="yes"/>
<layer number="97" name="Info" color="7" fill="1" visible="yes" active="yes"/>
<layer number="98" name="Guide" color="6" fill="1" visible="yes" active="yes"/>
</layers>
<schematic xreflabel="%F%N/%S.%C%R" xrefpart="/%S.%C%R">
<libraries>
<library name="pinhead" urn="urn:adsk.eagle:library:325">
<description>&lt;b&gt;Pin Header Connectors&lt;/b&gt;&lt;p&gt;
&lt;author&gt;Created by librarian@cadsoft.de&lt;/author&gt;</description>
<packages>
<package name="2X12" urn="urn:adsk.eagle:footprint:22276/1" library_version="4">
<description>&lt;b&gt;PIN HEADER&lt;/b&gt;</description>
<wire x1="-15.24" y1="-1.905" x2="-14.605" y2="-2.54" width="0.1524" layer="21"/>
<wire x1="-14.605" y1="-2.54" x2="-13.335" y2="-2.54" width="0.1524" layer="21"/>
<wire x1="-13.335" y1="-2.54" x2="-12.7" y2="-1.905" width="0.1524" layer="21"/>
<wire x1="-12.7" y1="-1.905" x2="-12.065" y2="-2.54" width="0.1524" layer="21"/>
<wire x1="-12.065" y1="-2.54" x2="-10.795" y2="-2.54" width="0.1524" layer="21"/>
<wire x1="-10.795" y1="-2.54" x2="-10.16" y2="-1.905" width="0.1524" layer="21"/>
<wire x1="-10.16" y1="-1.905" x2="-9.525" y2="-2.54" width="0.1524" layer="21"/>
<wire x1="-9.525" y1="-2.54" x2="-8.255" y2="-2.54" width="0.1524" layer="21"/>
<wire x1="-8.255" y1="-2.54" x2="-7.62" y2="-1.905" width="0.1524" layer="21"/>
<wire x1="-7.62" y1="-1.905" x2="-6.985" y2="-2.54" width="0.1524" layer="21"/>
<wire x1="-6.985" y1="-2.54" x2="-5.715" y2="-2.54" width="0.1524" layer="21"/>
<wire x1="-5.715" y1="-2.54" x2="-5.08" y2="-1.905" width="0.1524" layer="21"/>
<wire x1="-5.08" y1="-1.905" x2="-4.445" y2="-2.54" width="0.1524" layer="21"/>
<wire x1="-4.445" y1="-2.54" x2="-3.175" y2="-2.54" width="0.1524" layer="21"/>
<wire x1="-3.175" y1="-2.54" x2="-2.54" y2="-1.905" width="0.1524" layer="21"/>
<wire x1="-2.54" y1="-1.905" x2="-1.905" y2="-2.54" width="0.1524" layer="21"/>
<wire x1="-1.905" y1="-2.54" x2="-0.635" y2="-2.54" width="0.1524" layer="21"/>
<wire x1="-0.635" y1="-2.54" x2="0" y2="-1.905" width="0.1524" layer="21"/>
<wire x1="-15.24" y1="-1.905" x2="-15.24" y2="1.905" width="0.1524" layer="21"/>
<wire x1="-15.24" y1="1.905" x2="-14.605" y2="2.54" width="0.1524" layer="21"/>
<wire x1="-14.605" y1="2.54" x2="-13.335" y2="2.54" width="0.1524" layer="21"/>
<wire x1="-13.335" y1="2.54" x2="-12.7" y2="1.905" width="0.1524" layer="21"/>
<wire x1="-12.7" y1="1.905" x2="-12.065" y2="2.54" width="0.1524" layer="21"/>
<wire x1="-12.065" y1="2.54" x2="-10.795" y2="2.54" width="0.1524" layer="21"/>
<wire x1="-10.795" y1="2.54" x2="-10.16" y2="1.905" width="0.1524" layer="21"/>
<wire x1="-10.16" y1="1.905" x2="-9.525" y2="2.54" width="0.1524" layer="21"/>
<wire x1="-9.525" y1="2.54" x2="-8.255" y2="2.54" width="0.1524" layer="21"/>
<wire x1="-8.255" y1="2.54" x2="-7.62" y2="1.905" width="0.1524" layer="21"/>
<wire x1="-7.62" y1="1.905" x2="-6.985" y2="2.54" width="0.1524" layer="21"/>
<wire x1="-6.985" y1="2.54" x2="-5.715" y2="2.54" width="0.1524" layer="21"/>
<wire x1="-5.715" y1="2.54" x2="-5.08" y2="1.905" width="0.1524" layer="21"/>
<wire x1="-5.08" y1="1.905" x2="-4.445" y2="2.54" width="0.1524" layer="21"/>
<wire x1="-4.445" y1="2.54" x2="-3.175" y2="2.54" width="0.1524" layer="21"/>
<wire x1="-3.175" y1="2.54" x2="-2.54" y2="1.905" width="0.1524" layer="21"/>
<wire x1="-2.54" y1="1.905" x2="-1.905" y2="2.54" width="0.1524" layer="21"/>
<wire x1="-1.905" y1="2.54" x2="-0.635" y2="2.54" width="0.1524" layer="21"/>
<wire x1="-0.635" y1="2.54" x2="0" y2="1.905" width="0.1524" layer="21"/>
<wire x1="0" y1="1.905" x2="0.635" y2="2.54" width="0.1524" layer="21"/>
<wire x1="0.635" y1="2.54" x2="1.905" y2="2.54" width="0.1524" layer="21"/>
<wire x1="1.905" y1="2.54" x2="2.54" y2="1.905" width="0.1524" layer="21"/>
<wire x1="2.54" y1="1.905" x2="3.175" y2="2.54" width="0.1524" layer="21"/>
<wire x1="3.175" y1="2.54" x2="4.445" y2="2.54" width="0.1524" layer="21"/>
<wire x1="4.445" y1="2.54" x2="5.08" y2="1.905" width="0.1524" layer="21"/>
<wire x1="5.08" y1="1.905" x2="5.715" y2="2.54" width="0.1524" layer="21"/>
<wire x1="5.715" y1="2.54" x2="6.985" y2="2.54" width="0.1524" layer="21"/>
<wire x1="6.985" y1="2.54" x2="7.62" y2="1.905" width="0.1524" layer="21"/>
<wire x1="7.62" y1="1.905" x2="8.255" y2="2.54" width="0.1524" layer="21"/>
<wire x1="8.255" y1="2.54" x2="9.525" y2="2.54" width="0.1524" layer="21"/>
<wire x1="9.525" y1="2.54" x2="10.16" y2="1.905" width="0.1524" layer="21"/>
<wire x1="10.16" y1="1.905" x2="10.795" y2="2.54" width="0.1524" layer="21"/>
<wire x1="10.795" y1="2.54" x2="12.065" y2="2.54" width="0.1524" layer="21"/>
<wire x1="12.065" y1="2.54" x2="12.7" y2="1.905" width="0.1524" layer="21"/>
<wire x1="12.7" y1="-1.905" x2="12.065" y2="-2.54" width="0.1524" layer="21"/>
<wire x1="12.065" y1="-2.54" x2="10.795" y2="-2.54" width="0.1524" layer="21"/>
<wire x1="10.16" y1="-1.905" x2="10.795" y2="-2.54" width="0.1524" layer="21"/>
<wire x1="10.16" y1="-1.905" x2="9.525" y2="-2.54" width="0.1524" layer="21"/>
<wire x1="9.525" y1="-2.54" x2="8.255" y2="-2.54" width="0.1524" layer="21"/>
<wire x1="7.62" y1="-1.905" x2="8.255" y2="-2.54" width="0.1524" layer="21"/>
<wire x1="7.62" y1="-1.905" x2="6.985" y2="-2.54" width="0.1524" layer="21"/>
<wire x1="6.985" y1="-2.54" x2="5.715" y2="-2.54" width="0.1524" layer="21"/>
<wire x1="5.08" y1="-1.905" x2="5.715" y2="-2.54" width="0.1524" layer="21"/>
<wire x1="5.08" y1="-1.905" x2="4.445" y2="-2.54" width="0.1524" layer="21"/>
<wire x1="4.445" y1="-2.54" x2="3.175" y2="-2.54" width="0.1524" layer="21"/>
<wire x1="2.54" y1="-1.905" x2="3.175" y2="-2.54" width="0.1524" layer="21"/>
<wire x1="2.54" y1="-1.905" x2="1.905" y2="-2.54" width="0.1524" layer="21"/>
<wire x1="1.905" y1="-2.54" x2="0.635" y2="-2.54" width="0.1524" layer="21"/>
<wire x1="0" y1="-1.905" x2="0.635" y2="-2.54" width="0.1524" layer="21"/>
<wire x1="-12.7" y1="1.905" x2="-12.7" y2="-1.905" width="0.1524" layer="21"/>
<wire x1="-10.16" y1="1.905" x2="-10.16" y2="-1.905" width="0.1524" layer="21"/>
<wire x1="-7.62" y1="1.905" x2="-7.62" y2="-1.905" width="0.1524" layer="21"/>
<wire x1="-5.08" y1="1.905" x2="-5.08" y2="-1.905" width="0.1524" layer="21"/>
<wire x1="-2.54" y1="1.905" x2="-2.54" y2="-1.905" width="0.1524" layer="21"/>
<wire x1="0" y1="1.905" x2="0" y2="-1.905" width="0.1524" layer="21"/>
<wire x1="2.54" y1="1.905" x2="2.54" y2="-1.905" width="0.1524" layer="21"/>
<wire x1="5.08" y1="1.905" x2="5.08" y2="-1.905" width="0.1524" layer="21"/>
<wire x1="7.62" y1="1.905" x2="7.62" y2="-1.905" width="0.1524" layer="21"/>
<wire x1="10.16" y1="1.905" x2="10.16" y2="-1.905" width="0.1524" layer="21"/>
<wire x1="12.7" y1="1.905" x2="12.7" y2="-1.905" width="0.1524" layer="21"/>
<wire x1="12.7" y1="1.905" x2="13.335" y2="2.54" width="0.1524" layer="21"/>
<wire x1="13.335" y1="2.54" x2="14.605" y2="2.54" width="0.1524" layer="21"/>
<wire x1="14.605" y1="2.54" x2="15.24" y2="1.905" width="0.1524" layer="21"/>
<wire x1="15.24" y1="-1.905" x2="14.605" y2="-2.54" width="0.1524" layer="21"/>
<wire x1="14.605" y1="-2.54" x2="13.335" y2="-2.54" width="0.1524" layer="21"/>
<wire x1="12.7" y1="-1.905" x2="13.335" y2="-2.54" width="0.1524" layer="21"/>
<wire x1="15.24" y1="1.905" x2="15.24" y2="-1.905" width="0.1524" layer="21"/>
<pad name="1" x="-13.97" y="-1.27" drill="1.016" shape="octagon"/>
<pad name="2" x="-13.97" y="1.27" drill="1.016" shape="octagon"/>
<pad name="3" x="-11.43" y="-1.27" drill="1.016" shape="octagon"/>
<pad name="4" x="-11.43" y="1.27" drill="1.016" shape="octagon"/>
<pad name="5" x="-8.89" y="-1.27" drill="1.016" shape="octagon"/>
<pad name="6" x="-8.89" y="1.27" drill="1.016" shape="octagon"/>
<pad name="7" x="-6.35" y="-1.27" drill="1.016" shape="octagon"/>
<pad name="8" x="-6.35" y="1.27" drill="1.016" shape="octagon"/>
<pad name="9" x="-3.81" y="-1.27" drill="1.016" shape="octagon"/>
<pad name="10" x="-3.81" y="1.27" drill="1.016" shape="octagon"/>
<pad name="11" x="-1.27" y="-1.27" drill="1.016" shape="octagon"/>
<pad name="12" x="-1.27" y="1.27" drill="1.016" shape="octagon"/>
<pad name="13" x="1.27" y="-1.27" drill="1.016" shape="octagon"/>
<pad name="14" x="1.27" y="1.27" drill="1.016" shape="octagon"/>
<pad name="15" x="3.81" y="-1.27" drill="1.016" shape="octagon"/>
<pad name="16" x="3.81" y="1.27" drill="1.016" shape="octagon"/>
<pad name="17" x="6.35" y="-1.27" drill="1.016" shape="octagon"/>
<pad name="18" x="6.35" y="1.27" drill="1.016" shape="octagon"/>
<pad name="19" x="8.89" y="-1.27" drill="1.016" shape="octagon"/>
<pad name="20" x="8.89" y="1.27" drill="1.016" shape="octagon"/>
<pad name="21" x="11.43" y="-1.27" drill="1.016" shape="octagon"/>
<pad name="22" x="11.43" y="1.27" drill="1.016" shape="octagon"/>
<pad name="23" x="13.97" y="-1.27" drill="1.016" shape="octagon"/>
<pad name="24" x="13.97" y="1.27" drill="1.016" shape="octagon"/>
<text x="-15.24" y="3.175" size="1.27" layer="25" ratio="10">&gt;NAME</text>
<text x="-15.24" y="-4.445" size="1.27" layer="27">&gt;VALUE</text>
<rectangle x1="-14.224" y1="-1.524" x2="-13.716" y2="-1.016" layer="51"/>
<rectangle x1="-14.224" y1="1.016" x2="-13.716" y2="1.524" layer="51"/>
<rectangle x1="-11.684" y1="1.016" x2="-11.176" y2="1.524" layer="51"/>
<rectangle x1="-11.684" y1="-1.524" x2="-11.176" y2="-1.016" layer="51"/>
<rectangle x1="-9.144" y1="1.016" x2="-8.636" y2="1.524" layer="51"/>
<rectangle x1="-9.144" y1="-1.524" x2="-8.636" y2="-1.016" layer="51"/>
<rectangle x1="-6.604" y1="1.016" x2="-6.096" y2="1.524" layer="51"/>
<rectangle x1="-4.064" y1="1.016" x2="-3.556" y2="1.524" layer="51"/>
<rectangle x1="-1.524" y1="1.016" x2="-1.016" y2="1.524" layer="51"/>
<rectangle x1="-6.604" y1="-1.524" x2="-6.096" y2="-1.016" layer="51"/>
<rectangle x1="-4.064" y1="-1.524" x2="-3.556" y2="-1.016" layer="51"/>
<rectangle x1="-1.524" y1="-1.524" x2="-1.016" y2="-1.016" layer="51"/>
<rectangle x1="1.016" y1="1.016" x2="1.524" y2="1.524" layer="51"/>
<rectangle x1="1.016" y1="-1.524" x2="1.524" y2="-1.016" layer="51"/>
<rectangle x1="3.556" y1="1.016" x2="4.064" y2="1.524" layer="51"/>
<rectangle x1="3.556" y1="-1.524" x2="4.064" y2="-1.016" layer="51"/>
<rectangle x1="6.096" y1="1.016" x2="6.604" y2="1.524" layer="51"/>
<rectangle x1="6.096" y1="-1.524" x2="6.604" y2="-1.016" layer="51"/>
<rectangle x1="8.636" y1="1.016" x2="9.144" y2="1.524" layer="51"/>
<rectangle x1="8.636" y1="-1.524" x2="9.144" y2="-1.016" layer="51"/>
<rectangle x1="11.176" y1="1.016" x2="11.684" y2="1.524" layer="51"/>
<rectangle x1="11.176" y1="-1.524" x2="11.684" y2="-1.016" layer="51"/>
<rectangle x1="13.716" y1="1.016" x2="14.224" y2="1.524" layer="51"/>
<rectangle x1="13.716" y1="-1.524" x2="14.224" y2="-1.016" layer="51"/>
</package>
<package name="2X12/90" urn="urn:adsk.eagle:footprint:22277/1" library_version="4">
<description>&lt;b&gt;PIN HEADER&lt;/b&gt;</description>
<wire x1="-15.24" y1="-1.905" x2="-12.7" y2="-1.905" width="0.1524" layer="21"/>
<wire x1="-12.7" y1="-1.905" x2="-12.7" y2="0.635" width="0.1524" layer="21"/>
<wire x1="-12.7" y1="0.635" x2="-15.24" y2="0.635" width="0.1524" layer="21"/>
<wire x1="-15.24" y1="0.635" x2="-15.24" y2="-1.905" width="0.1524" layer="21"/>
<wire x1="-13.97" y1="6.985" x2="-13.97" y2="1.27" width="0.762" layer="21"/>
<wire x1="-12.7" y1="-1.905" x2="-10.16" y2="-1.905" width="0.1524" layer="21"/>
<wire x1="-10.16" y1="-1.905" x2="-10.16" y2="0.635" width="0.1524" layer="21"/>
<wire x1="-10.16" y1="0.635" x2="-12.7" y2="0.635" width="0.1524" layer="21"/>
<wire x1="-11.43" y1="6.985" x2="-11.43" y2="1.27" width="0.762" layer="21"/>
<wire x1="-10.16" y1="-1.905" x2="-7.62" y2="-1.905" width="0.1524" layer="21"/>
<wire x1="-7.62" y1="-1.905" x2="-7.62" y2="0.635" width="0.1524" layer="21"/>
<wire x1="-7.62" y1="0.635" x2="-10.16" y2="0.635" width="0.1524" layer="21"/>
<wire x1="-8.89" y1="6.985" x2="-8.89" y2="1.27" width="0.762" layer="21"/>
<wire x1="-7.62" y1="-1.905" x2="-5.08" y2="-1.905" width="0.1524" layer="21"/>
<wire x1="-5.08" y1="-1.905" x2="-5.08" y2="0.635" width="0.1524" layer="21"/>
<wire x1="-5.08" y1="0.635" x2="-7.62" y2="0.635" width="0.1524" layer="21"/>
<wire x1="-6.35" y1="6.985" x2="-6.35" y2="1.27" width="0.762" layer="21"/>
<wire x1="-5.08" y1="-1.905" x2="-2.54" y2="-1.905" width="0.1524" layer="21"/>
<wire x1="-2.54" y1="-1.905" x2="-2.54" y2="0.635" width="0.1524" layer="21"/>
<wire x1="-2.54" y1="0.635" x2="-5.08" y2="0.635" width="0.1524" layer="21"/>
<wire x1="-3.81" y1="6.985" x2="-3.81" y2="1.27" width="0.762" layer="21"/>
<wire x1="-2.54" y1="-1.905" x2="0" y2="-1.905" width="0.1524" layer="21"/>
<wire x1="0" y1="-1.905" x2="0" y2="0.635" width="0.1524" layer="21"/>
<wire x1="0" y1="0.635" x2="-2.54" y2="0.635" width="0.1524" layer="21"/>
<wire x1="-1.27" y1="6.985" x2="-1.27" y2="1.27" width="0.762" layer="21"/>
<wire x1="0" y1="-1.905" x2="2.54" y2="-1.905" width="0.1524" layer="21"/>
<wire x1="2.54" y1="-1.905" x2="2.54" y2="0.635" width="0.1524" layer="21"/>
<wire x1="2.54" y1="0.635" x2="0" y2="0.635" width="0.1524" layer="21"/>
<wire x1="1.27" y1="6.985" x2="1.27" y2="1.27" width="0.762" layer="21"/>
<wire x1="2.54" y1="-1.905" x2="5.08" y2="-1.905" width="0.1524" layer="21"/>
<wire x1="5.08" y1="-1.905" x2="5.08" y2="0.635" width="0.1524" layer="21"/>
<wire x1="5.08" y1="0.635" x2="2.54" y2="0.635" width="0.1524" layer="21"/>
<wire x1="3.81" y1="6.985" x2="3.81" y2="1.27" width="0.762" layer="21"/>
<wire x1="5.08" y1="-1.905" x2="7.62" y2="-1.905" width="0.1524" layer="21"/>
<wire x1="7.62" y1="-1.905" x2="7.62" y2="0.635" width="0.1524" layer="21"/>
<wire x1="7.62" y1="0.635" x2="5.08" y2="0.635" width="0.1524" layer="21"/>
<wire x1="6.35" y1="6.985" x2="6.35" y2="1.27" width="0.762" layer="21"/>
<wire x1="7.62" y1="-1.905" x2="10.16" y2="-1.905" width="0.1524" layer="21"/>
<wire x1="10.16" y1="-1.905" x2="10.16" y2="0.635" width="0.1524" layer="21"/>
<wire x1="10.16" y1="0.635" x2="7.62" y2="0.635" width="0.1524" layer="21"/>
<wire x1="8.89" y1="6.985" x2="8.89" y2="1.27" width="0.762" layer="21"/>
<wire x1="10.16" y1="-1.905" x2="12.7" y2="-1.905" width="0.1524" layer="21"/>
<wire x1="12.7" y1="-1.905" x2="12.7" y2="0.635" width="0.1524" layer="21"/>
<wire x1="12.7" y1="0.635" x2="10.16" y2="0.635" width="0.1524" layer="21"/>
<wire x1="11.43" y1="6.985" x2="11.43" y2="1.27" width="0.762" layer="21"/>
<wire x1="12.7" y1="-1.905" x2="15.24" y2="-1.905" width="0.1524" layer="21"/>
<wire x1="15.24" y1="-1.905" x2="15.24" y2="0.635" width="0.1524" layer="21"/>
<wire x1="15.24" y1="0.635" x2="12.7" y2="0.635" width="0.1524" layer="21"/>
<wire x1="13.97" y1="6.985" x2="13.97" y2="1.27" width="0.762" layer="21"/>
<pad name="2" x="-13.97" y="-3.81" drill="1.016" shape="octagon"/>
<pad name="4" x="-11.43" y="-3.81" drill="1.016" shape="octagon"/>
<pad name="6" x="-8.89" y="-3.81" drill="1.016" shape="octagon"/>
<pad name="8" x="-6.35" y="-3.81" drill="1.016" shape="octagon"/>
<pad name="10" x="-3.81" y="-3.81" drill="1.016" shape="octagon"/>
<pad name="12" x="-1.27" y="-3.81" drill="1.016" shape="octagon"/>
<pad name="14" x="1.27" y="-3.81" drill="1.016" shape="octagon"/>
<pad name="16" x="3.81" y="-3.81" drill="1.016" shape="octagon"/>
<pad name="18" x="6.35" y="-3.81" drill="1.016" shape="octagon"/>
<pad name="20" x="8.89" y="-3.81" drill="1.016" shape="octagon"/>
<pad name="22" x="11.43" y="-3.81" drill="1.016" shape="octagon"/>
<pad name="24" x="13.97" y="-3.81" drill="1.016" shape="octagon"/>
<pad name="1" x="-13.97" y="-6.35" drill="1.016" shape="octagon"/>
<pad name="3" x="-11.43" y="-6.35" drill="1.016" shape="octagon"/>
<pad name="5" x="-8.89" y="-6.35" drill="1.016" shape="octagon"/>
<pad name="7" x="-6.35" y="-6.35" drill="1.016" shape="octagon"/>
<pad name="9" x="-3.81" y="-6.35" drill="1.016" shape="octagon"/>
<pad name="11" x="-1.27" y="-6.35" drill="1.016" shape="octagon"/>
<pad name="13" x="1.27" y="-6.35" drill="1.016" shape="octagon"/>
<pad name="15" x="3.81" y="-6.35" drill="1.016" shape="octagon"/>
<pad name="17" x="6.35" y="-6.35" drill="1.016" shape="octagon"/>
<pad name="19" x="8.89" y="-6.35" drill="1.016" shape="octagon"/>
<pad name="21" x="11.43" y="-6.35" drill="1.016" shape="octagon"/>
<pad name="23" x="13.97" y="-6.35" drill="1.016" shape="octagon"/>
<text x="-15.875" y="-3.81" size="1.27" layer="25" ratio="10" rot="R90">&gt;NAME</text>
<text x="17.145" y="-3.81" size="1.27" layer="27" rot="R90">&gt;VALUE</text>
<rectangle x1="-14.351" y1="0.635" x2="-13.589" y2="1.143" layer="21"/>
<rectangle x1="-11.811" y1="0.635" x2="-11.049" y2="1.143" layer="21"/>
<rectangle x1="-9.271" y1="0.635" x2="-8.509" y2="1.143" layer="21"/>
<rectangle x1="-6.731" y1="0.635" x2="-5.969" y2="1.143" layer="21"/>
<rectangle x1="-4.191" y1="0.635" x2="-3.429" y2="1.143" layer="21"/>
<rectangle x1="-1.651" y1="0.635" x2="-0.889" y2="1.143" layer="21"/>
<rectangle x1="0.889" y1="0.635" x2="1.651" y2="1.143" layer="21"/>
<rectangle x1="3.429" y1="0.635" x2="4.191" y2="1.143" layer="21"/>
<rectangle x1="5.969" y1="0.635" x2="6.731" y2="1.143" layer="21"/>
<rectangle x1="8.509" y1="0.635" x2="9.271" y2="1.143" layer="21"/>
<rectangle x1="11.049" y1="0.635" x2="11.811" y2="1.143" layer="21"/>
<rectangle x1="13.589" y1="0.635" x2="14.351" y2="1.143" layer="21"/>
<rectangle x1="-14.351" y1="-2.921" x2="-13.589" y2="-1.905" layer="21"/>
<rectangle x1="-11.811" y1="-2.921" x2="-11.049" y2="-1.905" layer="21"/>
<rectangle x1="-14.351" y1="-5.461" x2="-13.589" y2="-4.699" layer="21"/>
<rectangle x1="-14.351" y1="-4.699" x2="-13.589" y2="-2.921" layer="51"/>
<rectangle x1="-11.811" y1="-4.699" x2="-11.049" y2="-2.921" layer="51"/>
<rectangle x1="-11.811" y1="-5.461" x2="-11.049" y2="-4.699" layer="21"/>
<rectangle x1="-9.271" y1="-2.921" x2="-8.509" y2="-1.905" layer="21"/>
<rectangle x1="-6.731" y1="-2.921" x2="-5.969" y2="-1.905" layer="21"/>
<rectangle x1="-9.271" y1="-5.461" x2="-8.509" y2="-4.699" layer="21"/>
<rectangle x1="-9.271" y1="-4.699" x2="-8.509" y2="-2.921" layer="51"/>
<rectangle x1="-6.731" y1="-4.699" x2="-5.969" y2="-2.921" layer="51"/>
<rectangle x1="-6.731" y1="-5.461" x2="-5.969" y2="-4.699" layer="21"/>
<rectangle x1="-4.191" y1="-2.921" x2="-3.429" y2="-1.905" layer="21"/>
<rectangle x1="-1.651" y1="-2.921" x2="-0.889" y2="-1.905" layer="21"/>
<rectangle x1="-4.191" y1="-5.461" x2="-3.429" y2="-4.699" layer="21"/>
<rectangle x1="-4.191" y1="-4.699" x2="-3.429" y2="-2.921" layer="51"/>
<rectangle x1="-1.651" y1="-4.699" x2="-0.889" y2="-2.921" layer="51"/>
<rectangle x1="-1.651" y1="-5.461" x2="-0.889" y2="-4.699" layer="21"/>
<rectangle x1="0.889" y1="-2.921" x2="1.651" y2="-1.905" layer="21"/>
<rectangle x1="3.429" y1="-2.921" x2="4.191" y2="-1.905" layer="21"/>
<rectangle x1="0.889" y1="-5.461" x2="1.651" y2="-4.699" layer="21"/>
<rectangle x1="0.889" y1="-4.699" x2="1.651" y2="-2.921" layer="51"/>
<rectangle x1="3.429" y1="-4.699" x2="4.191" y2="-2.921" layer="51"/>
<rectangle x1="3.429" y1="-5.461" x2="4.191" y2="-4.699" layer="21"/>
<rectangle x1="5.969" y1="-2.921" x2="6.731" y2="-1.905" layer="21"/>
<rectangle x1="8.509" y1="-2.921" x2="9.271" y2="-1.905" layer="21"/>
<rectangle x1="5.969" y1="-5.461" x2="6.731" y2="-4.699" layer="21"/>
<rectangle x1="5.969" y1="-4.699" x2="6.731" y2="-2.921" layer="51"/>
<rectangle x1="8.509" y1="-4.699" x2="9.271" y2="-2.921" layer="51"/>
<rectangle x1="8.509" y1="-5.461" x2="9.271" y2="-4.699" layer="21"/>
<rectangle x1="11.049" y1="-2.921" x2="11.811" y2="-1.905" layer="21"/>
<rectangle x1="13.589" y1="-2.921" x2="14.351" y2="-1.905" layer="21"/>
<rectangle x1="11.049" y1="-5.461" x2="11.811" y2="-4.699" layer="21"/>
<rectangle x1="11.049" y1="-4.699" x2="11.811" y2="-2.921" layer="51"/>
<rectangle x1="13.589" y1="-4.699" x2="14.351" y2="-2.921" layer="51"/>
<rectangle x1="13.589" y1="-5.461" x2="14.351" y2="-4.699" layer="21"/>
</package>
<package name="1X07" urn="urn:adsk.eagle:footprint:22367/1" library_version="4">
<description>&lt;b&gt;PIN HEADER&lt;/b&gt;</description>
<wire x1="3.81" y1="0.635" x2="4.445" y2="1.27" width="0.1524" layer="21"/>
<wire x1="4.445" y1="1.27" x2="5.715" y2="1.27" width="0.1524" layer="21"/>
<wire x1="5.715" y1="1.27" x2="6.35" y2="0.635" width="0.1524" layer="21"/>
<wire x1="6.35" y1="0.635" x2="6.35" y2="-0.635" width="0.1524" layer="21"/>
<wire x1="6.35" y1="-0.635" x2="5.715" y2="-1.27" width="0.1524" layer="21"/>
<wire x1="5.715" y1="-1.27" x2="4.445" y2="-1.27" width="0.1524" layer="21"/>
<wire x1="4.445" y1="-1.27" x2="3.81" y2="-0.635" width="0.1524" layer="21"/>
<wire x1="-0.635" y1="1.27" x2="0.635" y2="1.27" width="0.1524" layer="21"/>
<wire x1="0.635" y1="1.27" x2="1.27" y2="0.635" width="0.1524" layer="21"/>
<wire x1="1.27" y1="0.635" x2="1.27" y2="-0.635" width="0.1524" layer="21"/>
<wire x1="1.27" y1="-0.635" x2="0.635" y2="-1.27" width="0.1524" layer="21"/>
<wire x1="1.27" y1="0.635" x2="1.905" y2="1.27" width="0.1524" layer="21"/>
<wire x1="1.905" y1="1.27" x2="3.175" y2="1.27" width="0.1524" layer="21"/>
<wire x1="3.175" y1="1.27" x2="3.81" y2="0.635" width="0.1524" layer="21"/>
<wire x1="3.81" y1="0.635" x2="3.81" y2="-0.635" width="0.1524" layer="21"/>
<wire x1="3.81" y1="-0.635" x2="3.175" y2="-1.27" width="0.1524" layer="21"/>
<wire x1="3.175" y1="-1.27" x2="1.905" y2="-1.27" width="0.1524" layer="21"/>
<wire x1="1.905" y1="-1.27" x2="1.27" y2="-0.635" width="0.1524" layer="21"/>
<wire x1="-3.81" y1="0.635" x2="-3.175" y2="1.27" width="0.1524" layer="21"/>
<wire x1="-3.175" y1="1.27" x2="-1.905" y2="1.27" width="0.1524" layer="21"/>
<wire x1="-1.905" y1="1.27" x2="-1.27" y2="0.635" width="0.1524" layer="21"/>
<wire x1="-1.27" y1="0.635" x2="-1.27" y2="-0.635" width="0.1524" layer="21"/>
<wire x1="-1.27" y1="-0.635" x2="-1.905" y2="-1.27" width="0.1524" layer="21"/>
<wire x1="-1.905" y1="-1.27" x2="-3.175" y2="-1.27" width="0.1524" layer="21"/>
<wire x1="-3.175" y1="-1.27" x2="-3.81" y2="-0.635" width="0.1524" layer="21"/>
<wire x1="-0.635" y1="1.27" x2="-1.27" y2="0.635" width="0.1524" layer="21"/>
<wire x1="-1.27" y1="-0.635" x2="-0.635" y2="-1.27" width="0.1524" layer="21"/>
<wire x1="0.635" y1="-1.27" x2="-0.635" y2="-1.27" width="0.1524" layer="21"/>
<wire x1="-8.255" y1="1.27" x2="-6.985" y2="1.27" width="0.1524" layer="21"/>
<wire x1="-6.985" y1="1.27" x2="-6.35" y2="0.635" width="0.1524" layer="21"/>
<wire x1="-6.35" y1="0.635" x2="-6.35" y2="-0.635" width="0.1524" layer="21"/>
<wire x1="-6.35" y1="-0.635" x2="-6.985" y2="-1.27" width="0.1524" layer="21"/>
<wire x1="-6.35" y1="0.635" x2="-5.715" y2="1.27" width="0.1524" layer="21"/>
<wire x1="-5.715" y1="1.27" x2="-4.445" y2="1.27" width="0.1524" layer="21"/>
<wire x1="-4.445" y1="1.27" x2="-3.81" y2="0.635" width="0.1524" layer="21"/>
<wire x1="-3.81" y1="0.635" x2="-3.81" y2="-0.635" width="0.1524" layer="21"/>
<wire x1="-3.81" y1="-0.635" x2="-4.445" y2="-1.27" width="0.1524" layer="21"/>
<wire x1="-4.445" y1="-1.27" x2="-5.715" y2="-1.27" width="0.1524" layer="21"/>
<wire x1="-5.715" y1="-1.27" x2="-6.35" y2="-0.635" width="0.1524" layer="21"/>
<wire x1="-8.89" y1="0.635" x2="-8.89" y2="-0.635" width="0.1524" layer="21"/>
<wire x1="-8.255" y1="1.27" x2="-8.89" y2="0.635" width="0.1524" layer="21"/>
<wire x1="-8.89" y1="-0.635" x2="-8.255" y2="-1.27" width="0.1524" layer="21"/>
<wire x1="-6.985" y1="-1.27" x2="-8.255" y2="-1.27" width="0.1524" layer="21"/>
<wire x1="6.985" y1="1.27" x2="8.255" y2="1.27" width="0.1524" layer="21"/>
<wire x1="8.255" y1="1.27" x2="8.89" y2="0.635" width="0.1524" layer="21"/>
<wire x1="8.89" y1="0.635" x2="8.89" y2="-0.635" width="0.1524" layer="21"/>
<wire x1="8.89" y1="-0.635" x2="8.255" y2="-1.27" width="0.1524" layer="21"/>
<wire x1="6.985" y1="1.27" x2="6.35" y2="0.635" width="0.1524" layer="21"/>
<wire x1="6.35" y1="-0.635" x2="6.985" y2="-1.27" width="0.1524" layer="21"/>
<wire x1="8.255" y1="-1.27" x2="6.985" y2="-1.27" width="0.1524" layer="21"/>
<pad name="1" x="-7.62" y="0" drill="1.016" shape="long" rot="R90"/>
<pad name="2" x="-5.08" y="0" drill="1.016" shape="long" rot="R90"/>
<pad name="3" x="-2.54" y="0" drill="1.016" shape="long" rot="R90"/>
<pad name="4" x="0" y="0" drill="1.016" shape="long" rot="R90"/>
<pad name="5" x="2.54" y="0" drill="1.016" shape="long" rot="R90"/>
<pad name="6" x="5.08" y="0" drill="1.016" shape="long" rot="R90"/>
<pad name="7" x="7.62" y="0" drill="1.016" shape="long" rot="R90"/>
<text x="-8.9662" y="1.8288" size="1.27" layer="25" ratio="10">&gt;NAME</text>
<text x="-8.89" y="-3.175" size="1.27" layer="27">&gt;VALUE</text>
<rectangle x1="4.826" y1="-0.254" x2="5.334" y2="0.254" layer="51"/>
<rectangle x1="2.286" y1="-0.254" x2="2.794" y2="0.254" layer="51"/>
<rectangle x1="-0.254" y1="-0.254" x2="0.254" y2="0.254" layer="51"/>
<rectangle x1="-2.794" y1="-0.254" x2="-2.286" y2="0.254" layer="51"/>
<rectangle x1="-5.334" y1="-0.254" x2="-4.826" y2="0.254" layer="51"/>
<rectangle x1="-7.874" y1="-0.254" x2="-7.366" y2="0.254" layer="51"/>
<rectangle x1="7.366" y1="-0.254" x2="7.874" y2="0.254" layer="51"/>
</package>
<package name="1X07/90" urn="urn:adsk.eagle:footprint:22368/1" library_version="4">
<description>&lt;b&gt;PIN HEADER&lt;/b&gt;</description>
<wire x1="-8.89" y1="-1.905" x2="-6.35" y2="-1.905" width="0.1524" layer="21"/>
<wire x1="-6.35" y1="-1.905" x2="-6.35" y2="0.635" width="0.1524" layer="21"/>
<wire x1="-6.35" y1="0.635" x2="-8.89" y2="0.635" width="0.1524" layer="21"/>
<wire x1="-8.89" y1="0.635" x2="-8.89" y2="-1.905" width="0.1524" layer="21"/>
<wire x1="-7.62" y1="6.985" x2="-7.62" y2="1.27" width="0.762" layer="21"/>
<wire x1="-6.35" y1="-1.905" x2="-3.81" y2="-1.905" width="0.1524" layer="21"/>
<wire x1="-3.81" y1="-1.905" x2="-3.81" y2="0.635" width="0.1524" layer="21"/>
<wire x1="-3.81" y1="0.635" x2="-6.35" y2="0.635" width="0.1524" layer="21"/>
<wire x1="-5.08" y1="6.985" x2="-5.08" y2="1.27" width="0.762" layer="21"/>
<wire x1="-3.81" y1="-1.905" x2="-1.27" y2="-1.905" width="0.1524" layer="21"/>
<wire x1="-1.27" y1="-1.905" x2="-1.27" y2="0.635" width="0.1524" layer="21"/>
<wire x1="-1.27" y1="0.635" x2="-3.81" y2="0.635" width="0.1524" layer="21"/>
<wire x1="-2.54" y1="6.985" x2="-2.54" y2="1.27" width="0.762" layer="21"/>
<wire x1="-1.27" y1="-1.905" x2="1.27" y2="-1.905" width="0.1524" layer="21"/>
<wire x1="1.27" y1="-1.905" x2="1.27" y2="0.635" width="0.1524" layer="21"/>
<wire x1="1.27" y1="0.635" x2="-1.27" y2="0.635" width="0.1524" layer="21"/>
<wire x1="0" y1="6.985" x2="0" y2="1.27" width="0.762" layer="21"/>
<wire x1="1.27" y1="-1.905" x2="3.81" y2="-1.905" width="0.1524" layer="21"/>
<wire x1="3.81" y1="-1.905" x2="3.81" y2="0.635" width="0.1524" layer="21"/>
<wire x1="3.81" y1="0.635" x2="1.27" y2="0.635" width="0.1524" layer="21"/>
<wire x1="2.54" y1="6.985" x2="2.54" y2="1.27" width="0.762" layer="21"/>
<wire x1="3.81" y1="-1.905" x2="6.35" y2="-1.905" width="0.1524" layer="21"/>
<wire x1="6.35" y1="-1.905" x2="6.35" y2="0.635" width="0.1524" layer="21"/>
<wire x1="6.35" y1="0.635" x2="3.81" y2="0.635" width="0.1524" layer="21"/>
<wire x1="5.08" y1="6.985" x2="5.08" y2="1.27" width="0.762" layer="21"/>
<wire x1="6.35" y1="-1.905" x2="8.89" y2="-1.905" width="0.1524" layer="21"/>
<wire x1="8.89" y1="-1.905" x2="8.89" y2="0.635" width="0.1524" layer="21"/>
<wire x1="8.89" y1="0.635" x2="6.35" y2="0.635" width="0.1524" layer="21"/>
<wire x1="7.62" y1="6.985" x2="7.62" y2="1.27" width="0.762" layer="21"/>
<pad name="1" x="-7.62" y="-3.81" drill="1.016" shape="long" rot="R90"/>
<pad name="2" x="-5.08" y="-3.81" drill="1.016" shape="long" rot="R90"/>
<pad name="3" x="-2.54" y="-3.81" drill="1.016" shape="long" rot="R90"/>
<pad name="4" x="0" y="-3.81" drill="1.016" shape="long" rot="R90"/>
<pad name="5" x="2.54" y="-3.81" drill="1.016" shape="long" rot="R90"/>
<pad name="6" x="5.08" y="-3.81" drill="1.016" shape="long" rot="R90"/>
<pad name="7" x="7.62" y="-3.81" drill="1.016" shape="long" rot="R90"/>
<text x="-9.525" y="-3.81" size="1.27" layer="25" ratio="10" rot="R90">&gt;NAME</text>
<text x="10.795" y="-3.81" size="1.27" layer="27" rot="R90">&gt;VALUE</text>
<rectangle x1="-8.001" y1="0.635" x2="-7.239" y2="1.143" layer="21"/>
<rectangle x1="-5.461" y1="0.635" x2="-4.699" y2="1.143" layer="21"/>
<rectangle x1="-2.921" y1="0.635" x2="-2.159" y2="1.143" layer="21"/>
<rectangle x1="-0.381" y1="0.635" x2="0.381" y2="1.143" layer="21"/>
<rectangle x1="2.159" y1="0.635" x2="2.921" y2="1.143" layer="21"/>
<rectangle x1="4.699" y1="0.635" x2="5.461" y2="1.143" layer="21"/>
<rectangle x1="7.239" y1="0.635" x2="8.001" y2="1.143" layer="21"/>
<rectangle x1="-8.001" y1="-2.921" x2="-7.239" y2="-1.905" layer="21"/>
<rectangle x1="-5.461" y1="-2.921" x2="-4.699" y2="-1.905" layer="21"/>
<rectangle x1="-2.921" y1="-2.921" x2="-2.159" y2="-1.905" layer="21"/>
<rectangle x1="-0.381" y1="-2.921" x2="0.381" y2="-1.905" layer="21"/>
<rectangle x1="2.159" y1="-2.921" x2="2.921" y2="-1.905" layer="21"/>
<rectangle x1="4.699" y1="-2.921" x2="5.461" y2="-1.905" layer="21"/>
<rectangle x1="7.239" y1="-2.921" x2="8.001" y2="-1.905" layer="21"/>
</package>
</packages>
<packages3d>
<package3d name="2X12" urn="urn:adsk.eagle:package:22420/2" type="model" library_version="4">
<description>PIN HEADER</description>
<packageinstances>
<packageinstance name="2X12"/>
</packageinstances>
</package3d>
<package3d name="2X12/90" urn="urn:adsk.eagle:package:22422/2" type="model" library_version="4">
<description>PIN HEADER</description>
<packageinstances>
<packageinstance name="2X12/90"/>
</packageinstances>
</package3d>
<package3d name="1X07" urn="urn:adsk.eagle:package:22477/2" type="model" library_version="4">
<description>PIN HEADER</description>
<packageinstances>
<packageinstance name="1X07"/>
</packageinstances>
</package3d>
<package3d name="1X07/90" urn="urn:adsk.eagle:package:22476/2" type="model" library_version="4">
<description>PIN HEADER</description>
<packageinstances>
<packageinstance name="1X07/90"/>
</packageinstances>
</package3d>
</packages3d>
<symbols>
<symbol name="PINH2X12" urn="urn:adsk.eagle:symbol:22275/1" library_version="4">
<wire x1="-6.35" y1="-17.78" x2="8.89" y2="-17.78" width="0.4064" layer="94"/>
<wire x1="8.89" y1="-17.78" x2="8.89" y2="15.24" width="0.4064" layer="94"/>
<wire x1="8.89" y1="15.24" x2="-6.35" y2="15.24" width="0.4064" layer="94"/>
<wire x1="-6.35" y1="15.24" x2="-6.35" y2="-17.78" width="0.4064" layer="94"/>
<text x="-6.35" y="15.875" size="1.778" layer="95">&gt;NAME</text>
<text x="-6.35" y="-20.32" size="1.778" layer="96">&gt;VALUE</text>
<pin name="1" x="-2.54" y="12.7" visible="pad" length="short" direction="pas" function="dot"/>
<pin name="2" x="5.08" y="12.7" visible="pad" length="short" direction="pas" function="dot" rot="R180"/>
<pin name="3" x="-2.54" y="10.16" visible="pad" length="short" direction="pas" function="dot"/>
<pin name="4" x="5.08" y="10.16" visible="pad" length="short" direction="pas" function="dot" rot="R180"/>
<pin name="5" x="-2.54" y="7.62" visible="pad" length="short" direction="pas" function="dot"/>
<pin name="6" x="5.08" y="7.62" visible="pad" length="short" direction="pas" function="dot" rot="R180"/>
<pin name="7" x="-2.54" y="5.08" visible="pad" length="short" direction="pas" function="dot"/>
<pin name="8" x="5.08" y="5.08" visible="pad" length="short" direction="pas" function="dot" rot="R180"/>
<pin name="9" x="-2.54" y="2.54" visible="pad" length="short" direction="pas" function="dot"/>
<pin name="10" x="5.08" y="2.54" visible="pad" length="short" direction="pas" function="dot" rot="R180"/>
<pin name="11" x="-2.54" y="0" visible="pad" length="short" direction="pas" function="dot"/>
<pin name="12" x="5.08" y="0" visible="pad" length="short" direction="pas" function="dot" rot="R180"/>
<pin name="13" x="-2.54" y="-2.54" visible="pad" length="short" direction="pas" function="dot"/>
<pin name="14" x="5.08" y="-2.54" visible="pad" length="short" direction="pas" function="dot" rot="R180"/>
<pin name="15" x="-2.54" y="-5.08" visible="pad" length="short" direction="pas" function="dot"/>
<pin name="16" x="5.08" y="-5.08" visible="pad" length="short" direction="pas" function="dot" rot="R180"/>
<pin name="17" x="-2.54" y="-7.62" visible="pad" length="short" direction="pas" function="dot"/>
<pin name="18" x="5.08" y="-7.62" visible="pad" length="short" direction="pas" function="dot" rot="R180"/>
<pin name="19" x="-2.54" y="-10.16" visible="pad" length="short" direction="pas" function="dot"/>
<pin name="20" x="5.08" y="-10.16" visible="pad" length="short" direction="pas" function="dot" rot="R180"/>
<pin name="21" x="-2.54" y="-12.7" visible="pad" length="short" direction="pas" function="dot"/>
<pin name="22" x="5.08" y="-12.7" visible="pad" length="short" direction="pas" function="dot" rot="R180"/>
<pin name="23" x="-2.54" y="-15.24" visible="pad" length="short" direction="pas" function="dot"/>
<pin name="24" x="5.08" y="-15.24" visible="pad" length="short" direction="pas" function="dot" rot="R180"/>
</symbol>
<symbol name="PINHD7" urn="urn:adsk.eagle:symbol:22366/1" library_version="4">
<wire x1="-6.35" y1="-10.16" x2="1.27" y2="-10.16" width="0.4064" layer="94"/>
<wire x1="1.27" y1="-10.16" x2="1.27" y2="10.16" width="0.4064" layer="94"/>
<wire x1="1.27" y1="10.16" x2="-6.35" y2="10.16" width="0.4064" layer="94"/>
<wire x1="-6.35" y1="10.16" x2="-6.35" y2="-10.16" width="0.4064" layer="94"/>
<text x="-6.35" y="10.795" size="1.778" layer="95">&gt;NAME</text>
<text x="-6.35" y="-12.7" size="1.778" layer="96">&gt;VALUE</text>
<pin name="1" x="-2.54" y="7.62" visible="pad" length="short" direction="pas" function="dot"/>
<pin name="2" x="-2.54" y="5.08" visible="pad" length="short" direction="pas" function="dot"/>
<pin name="3" x="-2.54" y="2.54" visible="pad" length="short" direction="pas" function="dot"/>
<pin name="4" x="-2.54" y="0" visible="pad" length="short" direction="pas" function="dot"/>
<pin name="5" x="-2.54" y="-2.54" visible="pad" length="short" direction="pas" function="dot"/>
<pin name="6" x="-2.54" y="-5.08" visible="pad" length="short" direction="pas" function="dot"/>
<pin name="7" x="-2.54" y="-7.62" visible="pad" length="short" direction="pas" function="dot"/>
</symbol>
</symbols>
<devicesets>
<deviceset name="PINHD-2X12" urn="urn:adsk.eagle:component:22506/4" prefix="JP" uservalue="yes" library_version="4">
<description>&lt;b&gt;PIN HEADER&lt;/b&gt;</description>
<gates>
<gate name="A" symbol="PINH2X12" x="0" y="0"/>
</gates>
<devices>
<device name="" package="2X12">
<connects>
<connect gate="A" pin="1" pad="1"/>
<connect gate="A" pin="10" pad="10"/>
<connect gate="A" pin="11" pad="11"/>
<connect gate="A" pin="12" pad="12"/>
<connect gate="A" pin="13" pad="13"/>
<connect gate="A" pin="14" pad="14"/>
<connect gate="A" pin="15" pad="15"/>
<connect gate="A" pin="16" pad="16"/>
<connect gate="A" pin="17" pad="17"/>
<connect gate="A" pin="18" pad="18"/>
<connect gate="A" pin="19" pad="19"/>
<connect gate="A" pin="2" pad="2"/>
<connect gate="A" pin="20" pad="20"/>
<connect gate="A" pin="21" pad="21"/>
<connect gate="A" pin="22" pad="22"/>
<connect gate="A" pin="23" pad="23"/>
<connect gate="A" pin="24" pad="24"/>
<connect gate="A" pin="3" pad="3"/>
<connect gate="A" pin="4" pad="4"/>
<connect gate="A" pin="5" pad="5"/>
<connect gate="A" pin="6" pad="6"/>
<connect gate="A" pin="7" pad="7"/>
<connect gate="A" pin="8" pad="8"/>
<connect gate="A" pin="9" pad="9"/>
</connects>
<package3dinstances>
<package3dinstance package3d_urn="urn:adsk.eagle:package:22420/2"/>
</package3dinstances>
<technologies>
<technology name="">
<attribute name="POPULARITY" value="3" constant="no"/>
</technology>
</technologies>
</device>
<device name="/90" package="2X12/90">
<connects>
<connect gate="A" pin="1" pad="1"/>
<connect gate="A" pin="10" pad="10"/>
<connect gate="A" pin="11" pad="11"/>
<connect gate="A" pin="12" pad="12"/>
<connect gate="A" pin="13" pad="13"/>
<connect gate="A" pin="14" pad="14"/>
<connect gate="A" pin="15" pad="15"/>
<connect gate="A" pin="16" pad="16"/>
<connect gate="A" pin="17" pad="17"/>
<connect gate="A" pin="18" pad="18"/>
<connect gate="A" pin="19" pad="19"/>
<connect gate="A" pin="2" pad="2"/>
<connect gate="A" pin="20" pad="20"/>
<connect gate="A" pin="21" pad="21"/>
<connect gate="A" pin="22" pad="22"/>
<connect gate="A" pin="23" pad="23"/>
<connect gate="A" pin="24" pad="24"/>
<connect gate="A" pin="3" pad="3"/>
<connect gate="A" pin="4" pad="4"/>
<connect gate="A" pin="5" pad="5"/>
<connect gate="A" pin="6" pad="6"/>
<connect gate="A" pin="7" pad="7"/>
<connect gate="A" pin="8" pad="8"/>
<connect gate="A" pin="9" pad="9"/>
</connects>
<package3dinstances>
<package3dinstance package3d_urn="urn:adsk.eagle:package:22422/2"/>
</package3dinstances>
<technologies>
<technology name="">
<attribute name="POPULARITY" value="0" constant="no"/>
</technology>
</technologies>
</device>
</devices>
</deviceset>
<deviceset name="PINHD-1X7" urn="urn:adsk.eagle:component:22537/4" prefix="JP" uservalue="yes" library_version="4">
<description>&lt;b&gt;PIN HEADER&lt;/b&gt;</description>
<gates>
<gate name="A" symbol="PINHD7" x="0" y="0"/>
</gates>
<devices>
<device name="" package="1X07">
<connects>
<connect gate="A" pin="1" pad="1"/>
<connect gate="A" pin="2" pad="2"/>
<connect gate="A" pin="3" pad="3"/>
<connect gate="A" pin="4" pad="4"/>
<connect gate="A" pin="5" pad="5"/>
<connect gate="A" pin="6" pad="6"/>
<connect gate="A" pin="7" pad="7"/>
</connects>
<package3dinstances>
<package3dinstance package3d_urn="urn:adsk.eagle:package:22477/2"/>
</package3dinstances>
<technologies>
<technology name="">
<attribute name="POPULARITY" value="0" constant="no"/>
</technology>
</technologies>
</device>
<device name="/90" package="1X07/90">
<connects>
<connect gate="A" pin="1" pad="1"/>
<connect gate="A" pin="2" pad="2"/>
<connect gate="A" pin="3" pad="3"/>
<connect gate="A" pin="4" pad="4"/>
<connect gate="A" pin="5" pad="5"/>
<connect gate="A" pin="6" pad="6"/>
<connect gate="A" pin="7" pad="7"/>
</connects>
<package3dinstances>
<package3dinstance package3d_urn="urn:adsk.eagle:package:22476/2"/>
</package3dinstances>
<technologies>
<technology name="">
<attribute name="POPULARITY" value="1" constant="no"/>
</technology>
</technologies>
</device>
</devices>
</deviceset>
</devicesets>
</library>
</libraries>
<attributes>
</attributes>
<variantdefs>
</variantdefs>
<classes>
<class number="0" name="default" width="0" drill="0">
</class>
</classes>
<parts>
<part name="RPI_HEADER" library="pinhead" library_urn="urn:adsk.eagle:library:325" deviceset="PINHD-2X12" device="" package3d_urn="urn:adsk.eagle:package:22420/2"/>
<part name="JP1" library="pinhead" library_urn="urn:adsk.eagle:library:325" deviceset="PINHD-1X7" device="" package3d_urn="urn:adsk.eagle:package:22477/2"/>
</parts>
<sheets>
<sheet>
<plain>
</plain>
<instances>
<instance part="RPI_HEADER" gate="A" x="60.96" y="50.8" smashed="yes">
<attribute name="NAME" x="54.61" y="66.675" size="1.778" layer="95"/>
<attribute name="VALUE" x="54.61" y="30.48" size="1.778" layer="96"/>
</instance>
<instance part="JP1" gate="A" x="83.82" y="45.72" smashed="yes" rot="R180">
<attribute name="NAME" x="90.17" y="34.925" size="1.778" layer="95" rot="R180"/>
<attribute name="VALUE" x="90.17" y="58.42" size="1.778" layer="96" rot="R180"/>
</instance>
</instances>
<busses>
</busses>
<nets>
<net name="SCK" class="0">
<segment>
<pinref part="RPI_HEADER" gate="A" pin="23"/>
<wire x1="58.42" y1="35.56" x2="48.26" y2="35.56" width="0.1524" layer="91"/>
<label x="48.26" y="35.56" size="1.778" layer="95"/>
</segment>
<segment>
<pinref part="JP1" gate="A" pin="6"/>
<wire x1="86.36" y1="50.8" x2="91.44" y2="50.8" width="0.1524" layer="91"/>
<label x="88.9" y="50.8" size="1.778" layer="95"/>
</segment>
</net>
<net name="MISO" class="0">
<segment>
<pinref part="RPI_HEADER" gate="A" pin="21"/>
<wire x1="58.42" y1="38.1" x2="48.26" y2="38.1" width="0.1524" layer="91"/>
<label x="48.26" y="38.1" size="1.778" layer="95"/>
</segment>
<segment>
<pinref part="JP1" gate="A" pin="4"/>
<wire x1="86.36" y1="45.72" x2="91.44" y2="45.72" width="0.1524" layer="91"/>
<label x="88.9" y="45.72" size="1.778" layer="95"/>
</segment>
</net>
<net name="MOSI" class="0">
<segment>
<pinref part="RPI_HEADER" gate="A" pin="19"/>
<wire x1="58.42" y1="40.64" x2="48.26" y2="40.64" width="0.1524" layer="91"/>
<label x="48.26" y="40.64" size="1.778" layer="95"/>
</segment>
<segment>
<pinref part="JP1" gate="A" pin="5"/>
<wire x1="86.36" y1="48.26" x2="91.44" y2="48.26" width="0.1524" layer="91"/>
<label x="88.9" y="48.26" size="1.778" layer="95"/>
</segment>
</net>
<net name="3.3V" class="0">
<segment>
<pinref part="RPI_HEADER" gate="A" pin="17"/>
<wire x1="58.42" y1="43.18" x2="48.26" y2="43.18" width="0.1524" layer="91"/>
<label x="48.26" y="43.18" size="1.778" layer="95"/>
</segment>
<segment>
<pinref part="JP1" gate="A" pin="1"/>
<wire x1="86.36" y1="38.1" x2="91.44" y2="38.1" width="0.1524" layer="91"/>
<label x="88.9" y="38.1" size="1.778" layer="95"/>
</segment>
</net>
<net name="CS" class="0">
<segment>
<pinref part="RPI_HEADER" gate="A" pin="24"/>
<wire x1="66.04" y1="35.56" x2="76.2" y2="35.56" width="0.1524" layer="91"/>
<label x="71.12" y="35.56" size="1.778" layer="95"/>
</segment>
<segment>
<pinref part="JP1" gate="A" pin="3"/>
<wire x1="86.36" y1="43.18" x2="91.44" y2="43.18" width="0.1524" layer="91"/>
<label x="88.9" y="43.18" size="1.778" layer="95"/>
</segment>
</net>
<net name="INT" class="0">
<segment>
<pinref part="RPI_HEADER" gate="A" pin="22"/>
<wire x1="66.04" y1="38.1" x2="76.2" y2="38.1" width="0.1524" layer="91"/>
<label x="71.12" y="38.1" size="1.778" layer="95"/>
</segment>
<segment>
<pinref part="JP1" gate="A" pin="7"/>
<wire x1="86.36" y1="53.34" x2="91.44" y2="53.34" width="0.1524" layer="91"/>
<label x="88.9" y="53.34" size="1.778" layer="95"/>
</segment>
</net>
<net name="GND" class="0">
<segment>
<pinref part="RPI_HEADER" gate="A" pin="20"/>
<wire x1="66.04" y1="40.64" x2="76.2" y2="40.64" width="0.1524" layer="91"/>
<label x="71.12" y="40.64" size="1.778" layer="95"/>
</segment>
<segment>
<pinref part="JP1" gate="A" pin="2"/>
<wire x1="86.36" y1="40.64" x2="91.44" y2="40.64" width="0.1524" layer="91"/>
<label x="88.9" y="40.64" size="1.778" layer="95"/>
</segment>
</net>
</nets>
</sheet>
</sheets>
</schematic>
</drawing>
<compatibility>
<note version="8.2" severity="warning">
Since Version 8.2, EAGLE supports online libraries. The ids
of those online libraries will not be understood (or retained)
with this version.
</note>
<note version="8.3" severity="warning">
Since Version 8.3, EAGLE supports URNs for individual library
assets (packages, symbols, and devices). The URNs of those assets
will not be understood (or retained) with this version.
</note>
<note version="8.3" severity="warning">
Since Version 8.3, EAGLE supports the association of 3D packages
with devices in libraries, schematics, and board files. Those 3D
packages will not be understood (or retained) with this version.
</note>
</compatibility>
</eagle>
